<svg width="134" height="148" viewBox="0 0 134 148" fill="none" xmlns="http://www.w3.org/2000/svg">
<rect width="5.32838" height="7" transform="translate(0 105)" fill="#8591B0"/>
<rect width="5.32838" height="7" transform="translate(11.6309 105)" fill="#8591B0"/>
<rect width="5.32838" height="7" transform="translate(23.2617 105)" fill="#8591B0"/>
<rect width="5.32838" height="7" transform="translate(34.8926 105)" fill="#8591B0"/>
<rect width="5.32838" height="7" transform="translate(46.5225 105)" fill="#8591B0"/>
<rect width="5.32838" height="7" transform="translate(58.1533 105)" fill="#8591B0"/>
<rect width="5.32838" height="7" transform="translate(0 116.753)" fill="#8591B0"/>
<rect width="5.32838" height="7" transform="translate(11.6309 116.753)" fill="#8591B0"/>
<rect width="5.32838" height="7" transform="translate(23.2617 116.753)" fill="#8591B0"/>
<rect width="5.32838" height="7" transform="translate(34.8926 116.753)" fill="#8591B0"/>
<rect width="5.32838" height="7" transform="translate(46.5225 116.753)" fill="#8591B0"/>
<rect width="5.32838" height="7" transform="translate(58.1533 116.753)" fill="#8591B0"/>
<rect width="5.32838" height="7" transform="translate(0 128.507)" fill="#8591B0"/>
<rect width="5.32838" height="7" transform="translate(11.6309 128.507)" fill="#8591B0"/>
<rect width="5.32838" height="7" transform="translate(23.2617 128.507)" fill="#8591B0"/>
<rect width="5.32838" height="7" transform="translate(34.8926 128.507)" fill="#8591B0"/>
<rect width="5.32838" height="7" transform="translate(46.5225 128.507)" fill="#8591B0"/>
<rect width="5.32838" height="7" transform="translate(58.1533 128.507)" fill="#8591B0"/>
<rect width="5.32838" height="7" transform="translate(0 140.26)" fill="#8591B0"/>
<rect width="5.32838" height="7" transform="translate(11.6309 140.26)" fill="#8591B0"/>
<rect width="5.32838" height="7" transform="translate(23.2617 140.26)" fill="#8591B0"/>
<rect width="5.32838" height="7" transform="translate(34.8926 140.26)" fill="#8591B0"/>
<rect width="5.32838" height="7" transform="translate(46.5225 140.26)" fill="#8591B0"/>
<rect width="5.32838" height="7" transform="translate(58.1533 140.26)" fill="#8591B0"/>
<rect width="5.32838" height="7" transform="translate(0 58)" fill="#8591B0"/>
<rect width="5.32838" height="7" transform="translate(11.6309 58)" fill="#8591B0"/>
<rect width="5.32838" height="7" transform="translate(23.2617 58)" fill="#8591B0"/>
<rect width="5.32838" height="7" transform="translate(34.8926 58)" fill="#8591B0"/>
<rect width="5.32838" height="7" transform="translate(46.5225 58)" fill="#8591B0"/>
<rect width="5.32838" height="7" transform="translate(58.1533 58)" fill="#8591B0"/>
<rect width="5.32838" height="7" transform="translate(0 69.7534)" fill="#8591B0"/>
<rect width="5.32838" height="7" transform="translate(11.6309 69.7534)" fill="#8591B0"/>
<rect width="5.32838" height="7" transform="translate(23.2617 69.7534)" fill="#8591B0"/>
<rect width="5.32838" height="7" transform="translate(34.8926 69.7534)" fill="#8591B0"/>
<rect width="5.32838" height="7" transform="translate(46.5225 69.7534)" fill="#8591B0"/>
<rect width="5.32838" height="7" transform="translate(58.1533 69.7534)" fill="#8591B0"/>
<rect width="5.32838" height="7" transform="translate(0 81.5068)" fill="#8591B0"/>
<rect width="5.32838" height="7" transform="translate(11.6309 81.5068)" fill="#8591B0"/>
<rect width="5.32838" height="7" transform="translate(23.2617 81.5068)" fill="#8591B0"/>
<rect width="5.32838" height="7" transform="translate(34.8926 81.5068)" fill="#8591B0"/>
<rect width="5.32838" height="7" transform="translate(46.5225 81.5068)" fill="#8591B0"/>
<rect width="5.32838" height="7" transform="translate(58.1533 81.5068)" fill="#8591B0"/>
<rect width="5.32838" height="7" transform="translate(0 93.2603)" fill="#8591B0"/>
<rect width="5.32838" height="7" transform="translate(11.6309 93.2603)" fill="#8591B0"/>
<rect width="5.32838" height="7" transform="translate(23.2617 93.2603)" fill="#8591B0"/>
<rect width="5.32838" height="7" transform="translate(34.8926 93.2603)" fill="#8591B0"/>
<rect width="5.32838" height="7" transform="translate(46.5225 93.2603)" fill="#8591B0"/>
<rect width="5.32838" height="7" transform="translate(58.1533 93.2603)" fill="#8591B0"/>
<rect width="5.32838" height="7" transform="translate(70 105)" fill="#8591B0"/>
<rect width="5.32838" height="7" transform="translate(81.6309 105)" fill="#8591B0"/>
<rect width="5.32838" height="7" transform="translate(93.2617 105)" fill="#8591B0"/>
<rect width="5.32838" height="7" transform="translate(104.893 105)" fill="#8591B0"/>
<rect width="5.32838" height="7" transform="translate(116.522 105)" fill="#8591B0"/>
<rect width="5.32838" height="7" transform="translate(128.153 105)" fill="#8591B0"/>
<rect width="5.32838" height="7" transform="translate(70 116.753)" fill="#8591B0"/>
<rect width="5.32838" height="7" transform="translate(81.6309 116.753)" fill="#8591B0"/>
<rect width="5.32838" height="7" transform="translate(93.2617 116.753)" fill="#8591B0"/>
<rect width="5.32838" height="7" transform="translate(104.893 116.753)" fill="#8591B0"/>
<rect width="5.32838" height="7" transform="translate(116.522 116.753)" fill="#8591B0"/>
<rect width="5.32838" height="7" transform="translate(128.153 116.753)" fill="#8591B0"/>
<rect width="5.32838" height="7" transform="translate(70 128.507)" fill="#8591B0"/>
<rect width="5.32838" height="7" transform="translate(81.6309 128.507)" fill="#8591B0"/>
<rect width="5.32838" height="7" transform="translate(93.2617 128.507)" fill="#8591B0"/>
<rect width="5.32838" height="7" transform="translate(104.893 128.507)" fill="#8591B0"/>
<rect width="5.32838" height="7" transform="translate(116.522 128.507)" fill="#8591B0"/>
<rect width="5.32838" height="7" transform="translate(128.153 128.507)" fill="#8591B0"/>
<rect width="5.32838" height="7" transform="translate(70 140.26)" fill="#8591B0"/>
<rect width="5.32838" height="7" transform="translate(81.6309 140.26)" fill="#8591B0"/>
<rect width="5.32838" height="7" transform="translate(93.2617 140.26)" fill="#8591B0"/>
<rect width="5.32838" height="7" transform="translate(104.893 140.26)" fill="#8591B0"/>
<rect width="5.32838" height="7" transform="translate(116.522 140.26)" fill="#8591B0"/>
<rect width="5.32838" height="7" transform="translate(128.153 140.26)" fill="#8591B0"/>
<rect width="5.32838" height="7" transform="translate(70 58)" fill="#8591B0"/>
<rect width="5.32838" height="7" transform="translate(81.6309 58)" fill="#8591B0"/>
<rect width="5.32838" height="7" transform="translate(93.2617 58)" fill="#8591B0"/>
<rect width="5.32838" height="7" transform="translate(104.893 58)" fill="#8591B0"/>
<rect width="5.32838" height="7" transform="translate(116.522 58)" fill="#8591B0"/>
<rect width="5.32838" height="7" transform="translate(128.153 58)" fill="#8591B0"/>
<rect width="5.32838" height="7" transform="translate(70 69.7534)" fill="#8591B0"/>
<rect width="5.32838" height="7" transform="translate(81.6309 69.7534)" fill="#8591B0"/>
<rect width="5.32838" height="7" transform="translate(93.2617 69.7534)" fill="#8591B0"/>
<rect width="5.32838" height="7" transform="translate(104.893 69.7534)" fill="#8591B0"/>
<rect width="5.32838" height="7" transform="translate(116.522 69.7534)" fill="#8591B0"/>
<rect width="5.32838" height="7" transform="translate(128.153 69.7534)" fill="#8591B0"/>
<rect width="5.32838" height="7" transform="translate(70 81.5068)" fill="#8591B0"/>
<rect width="5.32838" height="7" transform="translate(81.6309 81.5068)" fill="#8591B0"/>
<rect width="5.32838" height="7" transform="translate(93.2617 81.5068)" fill="#8591B0"/>
<rect width="5.32838" height="7" transform="translate(104.893 81.5068)" fill="#8591B0"/>
<rect width="5.32838" height="7" transform="translate(116.522 81.5068)" fill="#8591B0"/>
<rect width="5.32838" height="7" transform="translate(128.153 81.5068)" fill="#8591B0"/>
<rect width="5.32838" height="7" transform="translate(70 93.2603)" fill="#8591B0"/>
<rect width="5.32838" height="7" transform="translate(81.6309 93.2603)" fill="#8591B0"/>
<rect width="5.32838" height="7" transform="translate(93.2617 93.2603)" fill="#8591B0"/>
<rect width="5.32838" height="7" transform="translate(104.893 93.2603)" fill="#8591B0"/>
<rect width="5.32838" height="7" transform="translate(116.522 93.2603)" fill="#8591B0"/>
<rect width="5.32838" height="7" transform="translate(128.153 93.2603)" fill="#8591B0"/>
<rect width="5.32838" height="7" transform="translate(0 47)" fill="#8591B0"/>
<rect width="5.32838" height="7" transform="translate(11.6309 47)" fill="#8591B0"/>
<rect width="5.32838" height="7" transform="translate(23.2617 47)" fill="#8591B0"/>
<rect width="5.32838" height="7" transform="translate(34.8926 47)" fill="#8591B0"/>
<rect width="5.32838" height="7" transform="translate(46.5225 47)" fill="#8591B0"/>
<rect width="5.32838" height="7" transform="translate(58.1533 47)" fill="#8591B0"/>
<rect width="5.32838" height="7" fill="#8591B0"/>
<rect width="5.32838" height="7" transform="translate(11.6309)" fill="#8591B0"/>
<rect width="5.32838" height="7" transform="translate(23.2617)" fill="#8591B0"/>
<rect width="5.32838" height="7" transform="translate(34.8926)" fill="#8591B0"/>
<rect width="5.32838" height="7" transform="translate(46.5225)" fill="#8591B0"/>
<rect width="5.32838" height="7" transform="translate(58.1533)" fill="#8591B0"/>
<rect width="5.32838" height="7" transform="translate(0 11.7534)" fill="#8591B0"/>
<rect width="5.32838" height="7" transform="translate(11.6309 11.7534)" fill="#8591B0"/>
<rect width="5.32838" height="7" transform="translate(23.2617 11.7534)" fill="#8591B0"/>
<rect width="5.32838" height="7" transform="translate(34.8926 11.7534)" fill="#8591B0"/>
<rect width="5.32838" height="7" transform="translate(46.5225 11.7534)" fill="#8591B0"/>
<rect width="5.32838" height="7" transform="translate(58.1533 11.7534)" fill="#8591B0"/>
<rect width="5.32838" height="7" transform="translate(0 23.5068)" fill="#8591B0"/>
<rect width="5.32838" height="7" transform="translate(11.6309 23.5068)" fill="#8591B0"/>
<rect width="5.32838" height="7" transform="translate(23.2617 23.5068)" fill="#8591B0"/>
<rect width="5.32838" height="7" transform="translate(34.8926 23.5068)" fill="#8591B0"/>
<rect width="5.32838" height="7" transform="translate(46.5225 23.5068)" fill="#8591B0"/>
<rect width="5.32838" height="7" transform="translate(58.1533 23.5068)" fill="#8591B0"/>
<rect width="5.32838" height="7" transform="translate(0 35.2603)" fill="#8591B0"/>
<rect width="5.32838" height="7" transform="translate(11.6309 35.2603)" fill="#8591B0"/>
<rect width="5.32838" height="7" transform="translate(23.2617 35.2603)" fill="#8591B0"/>
<rect width="5.32838" height="7" transform="translate(34.8926 35.2603)" fill="#8591B0"/>
<rect width="5.32838" height="7" transform="translate(46.5225 35.2603)" fill="#8591B0"/>
<rect width="5.32838" height="7" transform="translate(58.1533 35.2603)" fill="#8591B0"/>
<rect width="5.32838" height="7" transform="translate(70 47)" fill="#8591B0"/>
<rect width="5.32838" height="7" transform="translate(81.6309 47)" fill="#8591B0"/>
<rect width="5.32838" height="7" transform="translate(93.2617 47)" fill="#8591B0"/>
<rect width="5.32838" height="7" transform="translate(104.893 47)" fill="#8591B0"/>
<rect width="5.32838" height="7" transform="translate(116.522 47)" fill="#8591B0"/>
<rect width="5.32838" height="7" transform="translate(128.153 47)" fill="#8591B0"/>
<rect width="5.32838" height="7" transform="translate(70)" fill="#8591B0"/>
<rect width="5.32838" height="7" transform="translate(81.6309)" fill="#8591B0"/>
<rect width="5.32838" height="7" transform="translate(93.2617)" fill="#8591B0"/>
<rect width="5.32838" height="7" transform="translate(104.893)" fill="#8591B0"/>
<rect width="5.32838" height="7" transform="translate(116.522)" fill="#8591B0"/>
<rect width="5.32838" height="7" transform="translate(128.153)" fill="#8591B0"/>
<rect width="5.32838" height="7" transform="translate(70 11.7534)" fill="#8591B0"/>
<rect width="5.32838" height="7" transform="translate(81.6309 11.7534)" fill="#8591B0"/>
<rect width="5.32838" height="7" transform="translate(93.2617 11.7534)" fill="#8591B0"/>
<rect width="5.32838" height="7" transform="translate(104.893 11.7534)" fill="#8591B0"/>
<rect width="5.32838" height="7" transform="translate(116.522 11.7534)" fill="#8591B0"/>
<rect width="5.32838" height="7" transform="translate(128.153 11.7534)" fill="#8591B0"/>
<rect width="5.32838" height="7" transform="translate(70 23.5068)" fill="#8591B0"/>
<rect width="5.32838" height="7" transform="translate(81.6309 23.5068)" fill="#8591B0"/>
<rect width="5.32838" height="7" transform="translate(93.2617 23.5068)" fill="#8591B0"/>
<rect width="5.32838" height="7" transform="translate(104.893 23.5068)" fill="#8591B0"/>
<rect width="5.32838" height="7" transform="translate(116.522 23.5068)" fill="#8591B0"/>
<rect width="5.32838" height="7" transform="translate(128.153 23.5068)" fill="#8591B0"/>
<rect width="5.32838" height="7" transform="translate(70 35.2603)" fill="#8591B0"/>
<rect width="5.32838" height="7" transform="translate(81.6309 35.2603)" fill="#8591B0"/>
<rect width="5.32838" height="7" transform="translate(93.2617 35.2603)" fill="#8591B0"/>
<rect width="5.32838" height="7" transform="translate(104.893 35.2603)" fill="#8591B0"/>
<rect width="5.32838" height="7" transform="translate(116.522 35.2603)" fill="#8591B0"/>
<rect width="5.32838" height="7" transform="translate(128.153 35.2603)" fill="#8591B0"/>
</svg>
