<svg xmlns="http://www.w3.org/2000/svg" xmlns:xlink="http://www.w3.org/1999/xlink" width="17" height="15" viewBox="0 0 17 15">
    <defs>
        <path id="a" d="M13.498 8.65H.73V7.215h12.912L8.215 1.788 9.23.773l7.07 7.07-.018.017.018.018-7.07 7.07-1.015-1.016 5.283-5.282z"/>
    </defs>
    <g fill="none" fill-rule="evenodd">
        <path fill="#FFF" d="M-1075-2620H365v4399h-1440z"/>
        <g>
            <use fill="#FFF" xlink:href="#a"/>
            <use fill="#FFF" xlink:href="#a"/>
            <use fill="#F25C31" xlink:href="#a"/>
        </g>
    </g>
</svg>
