<svg width="16" height="9" viewBox="0 0 16 9" fill="none" xmlns="http://www.w3.org/2000/svg">
<path d="M8.99155 8.6671L15.6666 1.99191C15.8211 1.83752 15.9062 1.63142 15.9062 1.41167C15.9062 1.19191 15.8211 0.985816 15.6666 0.831427L15.1752 0.339846C14.8549 0.0199703 14.3344 0.0199703 14.0147 0.339846L8.40936 5.94517L2.79782 0.333626C2.64331 0.179237 2.43734 0.0939941 2.2177 0.0939941C1.99783 0.0939941 1.79185 0.179237 1.63722 0.333626L1.14588 0.825208C0.991371 0.979719 0.90625 1.18569 0.90625 1.40545C0.90625 1.6252 0.991371 1.8313 1.14588 1.98569L7.82705 8.6671C7.98205 8.82185 8.189 8.90685 8.40899 8.90636C8.62985 8.90685 8.83667 8.82185 8.99155 8.6671Z" fill="#4A4A4A"/>
</svg>
