<svg width="114" height="40" viewBox="0 0 114 40" fill="none" xmlns="http://www.w3.org/2000/svg">
<rect width="113.865" height="40" fill="black" fill-opacity="0"/>
<path fill-rule="evenodd" clip-rule="evenodd" d="M25.3804 0.856753L31.6291 6.39491C33.7607 8.27579 35.4953 9.82229 37.627 11.7241C38.7764 12.769 39.2989 14.1901 39.069 15.4649L37.3762 23.6363C36.8119 26.4158 36.3313 28.6938 35.767 31.4942C35.4535 32.9989 34.4713 34.1902 33.2383 34.6081L25.3177 37.2414C22.6217 38.14 20.4065 38.8715 17.7105 39.7701C17.2508 39.9164 16.791 40 16.3312 40C16.6238 38.2236 17 36.0919 17.1045 35.7367C17.2508 35.2142 19.7586 31.954 20.1557 31.4315C20.8662 30.512 21.6604 29.6551 22.4336 28.861C23.2278 28.025 23.9384 27.1682 24.6907 26.2696C26.1536 24.535 27.6374 22.4869 28.5988 20.3761C28.954 19.6238 29.4347 18.5788 29.8945 17.8892C30.0826 17.6175 30.3543 17.4085 30.3961 17.095C30.2498 16.9278 30.1662 16.9278 30.0617 16.7816C30.3334 15.7993 31.0648 15.4022 31.5246 14.629C31.7336 14.1901 31.7963 13.5214 32.0052 13.2288C32.256 12.8526 32.6531 12.6436 32.9248 12.2883C32.9248 11.8495 32.8621 11.9958 32.7367 11.7659C32.5695 11.4733 32.7576 11.5151 32.7994 11.2225C32.6531 10.9926 32.4859 10.7627 32.2978 10.5746C32.0261 10.3448 31.8381 10.2194 31.4201 10.2612C31.0021 10.303 29.7064 10.5119 29.4765 10.6582C28.9958 10.9926 28.9122 12.0585 28.8496 12.769C28.7869 13.7512 29.2884 13.8139 28.5988 14.8589L26.4253 17.8683C26.1954 18.1818 24.3354 19.8328 23.813 20.2716L22.559 21.5674C21.3469 22.8004 21.4723 22.466 20.0303 24.0961L18.7137 25.2455C17.815 25.977 16.6238 26.6666 15.4117 26.8129C15.0355 26.8547 14.7638 26.8338 14.3668 26.9174C13.9488 27.0428 13.8861 27.1682 13.5517 27.3354C13.1128 27.5235 13.0083 27.419 12.5904 27.4817C12.2142 27.5444 11.9007 27.7116 11.5036 27.5653C11.3991 27.001 11.7962 25.9352 11.9634 25.4336C12.1306 25.4754 12.4859 25.9979 13.0292 24.7231C13.1337 24.4723 13.2173 24.117 13.1546 23.8453C13.0292 23.4691 12.8621 23.5318 12.6322 23.3019C12.6322 22.5078 12.6949 21.5674 12.7367 20.7523C12.7785 20.2925 12.5486 19.6656 12.2978 19.3312C11.9425 18.8505 12.2769 18.7669 11.8171 18.4952C11.232 18.1818 11.0648 17.7847 10.7722 17.4921C10.6677 17.3876 10.5005 17.304 10.396 17.1995C10.1661 16.9278 10.4378 17.095 10.0616 16.8442C9.74815 16.6562 9.43467 16.4472 9.05849 16.5099C8.76591 16.5308 8.76591 16.6144 8.57782 16.6771C8.36883 16.7607 8.24344 16.7398 8.03445 16.7816C7.65828 16.8443 6.92682 17.3876 6.75963 17.4712C6.19537 17.7638 6.15357 17.4085 5.6729 18.3908C5.38032 18.8923 4.83696 19.7283 4.77426 20.3552C4.73246 20.815 4.69066 21.1076 4.64887 21.5674C4.66977 21.839 4.60707 22.7586 4.58617 22.9049L4.1682 22.9676C3.77112 24.0961 4.27269 24.6604 4.60707 25.1619C4.85785 25.1619 4.73246 25.141 4.77426 25.1201C4.89965 25.0992 4.81606 25.0783 4.94145 25.0783C5.21313 25.3918 5.12954 25.7053 5.25493 26.0815C5.38032 26.5412 5.52661 26.7293 5.25493 27.2309C4.73246 28.2758 5.17133 28.1504 3.37405 27.9833C2.6008 27.9206 1.76485 27.8161 0.991597 27.7952C0.197446 26.8338 -0.136933 25.6426 0.0511556 24.5768L1.74395 16.4054C2.30821 13.6259 2.78888 11.3479 3.35315 8.54747C3.66663 7.04277 4.64887 5.85154 5.88189 5.43357L13.8025 2.80033C16.4984 1.90169 18.7137 1.17024 21.4096 0.271593C22.8934 -0.250875 24.3981 -9.2864e-05 25.3804 0.856753Z" fill="#F25C31"/>
<path d="M49.5179 20.418L48.4729 25.4546H51.4823L53.4677 16.0502H50.6464L47.3235 19.394L45.4217 16.0293H42.8721L40.8867 25.4337H43.917L44.9828 20.3971L46.6547 23.2811L49.5179 20.418ZM59.0686 21.3585H57.731L58.9223 18.9969L59.0686 21.3585ZM59.2567 23.6364L59.4238 25.4546H62.5586L61.1166 16.0502H57.7728L52.3601 25.4546H55.6621L56.5816 23.6364H59.2567ZM67.9296 22.487L68.9118 25.4546H72.0676L70.1449 20.5643L73.7812 16.0502H70.3748L68.4939 18.5998L67.6788 16.0502H64.5231L66.2577 20.5434L62.2661 25.4546H65.6725L67.9296 22.487ZM73.008 25.4546H76.0383L78.0237 16.0502H75.0143L73.008 25.4546ZM86.6966 20.418L85.6517 25.4546H88.6611L90.6465 16.0502H87.8252L84.5023 19.4149L82.6005 16.0502H80.0509L78.0655 25.4546H81.0958L82.1616 20.418L83.8335 23.302L86.6966 20.418ZM95.5368 23.0304C95.2024 23.0304 94.9307 22.9259 94.7008 22.6751C94.4709 22.4452 94.3456 22.1526 94.3456 21.7973C94.3456 21.6928 94.3665 21.5883 94.3874 21.4839L95.5368 16.0293H92.5065L91.357 21.4839C91.2943 21.7346 91.2526 22.0063 91.2526 22.3198C91.2526 23.3229 91.6287 24.1171 92.3602 24.7649C93.0916 25.3919 94.0321 25.7263 95.2024 25.7263C96.5399 25.7263 97.6267 25.3292 98.5044 24.556C99.3821 23.7618 99.9464 22.7587 100.219 21.4839L101.368 16.0293H98.3372L97.1878 21.4839C97.0833 21.9227 96.8743 22.278 96.5608 22.5706C96.2682 22.8841 95.913 23.0304 95.5368 23.0304ZM109.916 20.418L108.85 25.4546H111.88L113.865 16.0502H111.044L107.721 19.394L105.819 16.0293H103.27L101.284 25.4337H104.315L105.381 20.3971L107.052 23.2811L109.916 20.418Z" fill="#F25C31"/>
<path d="M43.4581 27.4817H40.4696L39.8008 30.6583H40.8248L41.3055 28.3803H42.2459L41.7653 30.6583H42.7893L43.4581 27.4817ZM45.5061 28.2967C45.7151 28.2967 45.8823 28.3594 46.0077 28.4848C46.1331 28.6102 46.1958 28.7774 46.1958 28.9655C46.1958 29.1954 46.1122 29.4044 45.9241 29.5716C45.736 29.7387 45.5479 29.8223 45.318 29.8223C45.1091 29.8223 44.9419 29.7597 44.7956 29.6343C44.6702 29.5089 44.6075 29.3417 44.6075 29.1536C44.6075 28.9237 44.6911 28.7147 44.8792 28.5475C45.0673 28.3803 45.2762 28.2967 45.5061 28.2967ZM47.2616 28.9028C47.2616 28.4848 47.1153 28.1087 46.8019 27.8161C46.4884 27.5235 46.0913 27.3772 45.5897 27.3772C45.2345 27.3772 44.921 27.4608 44.6075 27.628C44.294 27.7952 44.0432 28.0251 43.876 28.2967C43.6879 28.5684 43.6044 28.8819 43.6044 29.2163C43.6044 29.6343 43.7506 30.0104 44.0641 30.303C44.3776 30.5956 44.7747 30.7419 45.2763 30.7419C45.6106 30.7419 45.945 30.6583 46.2585 30.4911C46.572 30.3239 46.8019 30.094 46.9899 29.8223C47.1571 29.5298 47.2616 29.2372 47.2616 28.9028ZM47.2407 29.7388L46.9272 31.2644H47.9513L48.0767 30.6583H49.456L49.3306 31.2644H50.3546L50.6681 29.7388H50.3337L50.8144 27.4608H48.3066L48.0976 28.4848C48.0558 28.652 48.014 28.7983 47.9513 28.9446C47.8886 29.0909 47.8259 29.2163 47.7632 29.2999C47.7005 29.3835 47.6587 29.4671 47.5751 29.5507C47.5124 29.6134 47.4706 29.6761 47.4497 29.697C47.4288 29.7179 47.4079 29.7388 47.387 29.7388H47.2407ZM49.0798 28.5057L49.1007 28.4012H49.5814L49.2888 29.7597H48.4737L48.5782 29.6552C48.6409 29.5716 48.7454 29.4253 48.8499 29.2372C48.9544 28.9864 49.038 28.7565 49.0798 28.5057ZM50.8771 30.6583H51.9011L52.3818 28.3803H53.7193L53.9074 27.4608H51.5459L50.8771 30.6583ZM55.7047 28.2967C55.9137 28.2967 56.0809 28.3594 56.2063 28.4848C56.3526 28.6102 56.4153 28.7774 56.4153 28.9655C56.4153 29.1954 56.3317 29.4044 56.1436 29.5716C55.9555 29.7387 55.7674 29.8223 55.5375 29.8223C55.3285 29.8223 55.1613 29.7597 55.0359 29.6343C54.8896 29.5089 54.8269 29.3417 54.8269 29.1536C54.8269 28.9237 54.9105 28.7147 55.0986 28.5475C55.2658 28.3803 55.4748 28.2967 55.7047 28.2967ZM57.4393 28.9028C57.4393 28.4848 57.293 28.1087 56.9795 27.8161C56.666 27.5235 56.269 27.3772 55.7674 27.3772C55.4121 27.3772 55.0777 27.4608 54.7852 27.628C54.4717 27.7952 54.2418 28.0251 54.0537 28.2967C53.8656 28.5684 53.782 28.8819 53.782 29.2163C53.782 29.6343 53.9283 30.0104 54.2418 30.303C54.5553 30.5956 54.9523 30.7419 55.4539 30.7419C55.8092 30.7419 56.1227 30.6583 56.4361 30.4911C56.7496 30.3239 56.9795 30.094 57.1676 29.8223C57.3557 29.5298 57.4393 29.2372 57.4393 28.9028ZM57.8155 27.4817L57.6274 28.4012H58.4633L57.9827 30.6583H59.0067L59.4874 28.4012H60.3233L60.5114 27.4817H57.8155ZM62.3296 28.2967C62.5386 28.2967 62.7058 28.3594 62.8312 28.4848C62.9565 28.6102 63.0192 28.7774 63.0192 28.9655C63.0192 29.1954 62.9356 29.4044 62.7476 29.5716C62.5595 29.7387 62.3714 29.8223 62.1415 29.8223C61.9325 29.8223 61.7653 29.7597 61.619 29.6343C61.4936 29.5089 61.4309 29.3417 61.4309 29.1536C61.4309 28.9237 61.5145 28.7147 61.7026 28.5475C61.8907 28.3803 62.0997 28.2967 62.3296 28.2967ZM64.0851 28.9028C64.0851 28.4848 63.9388 28.1087 63.6253 27.8161C63.3118 27.5235 62.9147 27.3772 62.4132 27.3772C62.0579 27.3772 61.7444 27.4608 61.4309 27.628C61.1175 27.7952 60.8667 28.0251 60.6995 28.2967C60.5114 28.5684 60.4278 28.8819 60.4278 29.2163C60.4278 29.6343 60.5741 30.0104 60.8876 30.303C61.201 30.5956 61.5981 30.7419 62.0997 30.7419C62.4341 30.7419 62.7685 30.6583 63.0819 30.4911C63.3954 30.3239 63.6253 30.094 63.8134 29.8223C63.9806 29.5298 64.0851 29.2372 64.0851 28.9028ZM65.757 30.6583C66.1958 30.6583 66.5302 30.5747 66.781 30.3866C67.0318 30.1985 67.1572 29.9686 67.1572 29.6761C67.1572 29.5925 67.1363 29.5089 67.1154 29.4253C67.0736 29.3417 67.0527 29.279 67.0109 29.2372C66.9691 29.1954 66.9273 29.1327 66.8646 29.0909C66.8019 29.0491 66.781 29.0282 66.7601 29.0073C66.7392 28.9864 66.7183 28.9864 66.6974 28.9864L66.7183 28.9655C66.7392 28.9655 66.7392 28.9655 66.781 28.9446C66.8228 28.9237 66.8228 28.9237 66.8646 28.9028C66.8855 28.8819 66.9273 28.861 66.9691 28.8401C67.0109 28.8192 67.0318 28.7774 67.0736 28.7565C67.1154 28.7356 67.1363 28.6938 67.1781 28.652C67.2199 28.6102 67.2408 28.5684 67.2617 28.5266C67.2826 28.4848 67.3035 28.4221 67.3244 28.3803C67.3453 28.3176 67.3453 28.2549 67.3453 28.1923C67.3453 28.0042 67.2617 27.8161 67.0736 27.6698C66.8855 27.5235 66.6347 27.4399 66.3212 27.4399H64.8792L64.2105 30.6165H65.757V30.6583ZM65.339 29.885L65.4435 29.3835H65.9033C65.966 29.3835 66.0286 29.4044 66.0704 29.4462C66.1122 29.488 66.1331 29.5298 66.1331 29.5925C66.1331 29.6761 66.1122 29.7388 66.0495 29.8014C65.9869 29.8641 65.9242 29.885 65.8197 29.885H65.339ZM66.0077 28.2549C66.0704 28.2549 66.1122 28.2758 66.154 28.3176C66.1958 28.3385 66.2167 28.3803 66.2167 28.443C66.2167 28.5057 66.1958 28.5684 66.154 28.6102C66.0913 28.652 66.0495 28.6729 65.966 28.6729H65.6107L65.6943 28.2758H66.0077V28.2549ZM69.059 27.4817H68.0349L67.3662 30.6583H68.3902L68.5574 29.9059L68.9336 29.5507L69.3933 30.6583H70.5219L69.7277 28.8192L71.107 27.4817H69.9158L68.8709 28.5266L69.059 27.4817ZM72.7162 29.279H72.2565L72.6535 28.4848L72.7162 29.279ZM72.7789 30.0313L72.8416 30.6374H73.9075L73.4268 27.4608H72.2983L70.4592 30.6374H71.5877L71.9012 30.0313H72.7789ZM77.1259 27.4817H76.1018L75.4331 30.6583H76.4571L76.6243 29.9059L77.0005 29.5507L77.4602 30.6583H78.5888L77.7946 28.8192L79.1739 27.4817H77.9827L76.9378 28.5266L77.1259 27.4817ZM81.1802 29.8641C81.0339 29.8641 80.8876 29.8223 80.7622 29.7597C80.6159 29.697 80.5323 29.6552 80.4905 29.6134C80.4487 29.5716 80.4278 29.5507 80.386 29.5089L79.6964 30.094L79.7382 30.1567C79.78 30.1985 79.8427 30.2612 79.9054 30.3239C79.989 30.3866 80.0726 30.4493 80.1771 30.512C80.2816 30.5747 80.4069 30.6165 80.5741 30.6792C80.7413 30.721 80.9085 30.7419 81.0757 30.7419C81.6609 30.7419 82.1624 30.5538 82.5386 30.1985C82.9357 29.8223 83.1238 29.3835 83.1238 28.861C83.1238 28.4639 82.9775 28.1087 82.664 27.8161C82.3505 27.5235 81.9744 27.3772 81.5355 27.3772C81.3683 27.3772 81.2011 27.3981 81.0548 27.4399C80.8876 27.4817 80.7622 27.5235 80.6577 27.5862C80.5532 27.6489 80.4487 27.6907 80.3651 27.7743C80.2816 27.837 80.2189 27.8997 80.1771 27.9206C80.1562 27.9415 80.1353 27.9833 80.1144 27.9833L80.595 28.6311L80.6995 28.5266C80.7622 28.4639 80.8667 28.4012 80.9921 28.3385C81.1384 28.2758 81.2638 28.2549 81.4101 28.2549C81.5773 28.2549 81.7236 28.2967 81.8281 28.3594C81.9325 28.4221 82.0161 28.5266 82.0788 28.652H80.9712L80.804 29.4253H81.9325C81.849 29.5507 81.7236 29.6552 81.5773 29.7179C81.431 29.7805 81.3265 29.8641 81.1802 29.8641ZM84.942 27.4817H83.9179L83.2492 30.6583H84.2732L84.4404 29.9059L84.8166 29.5507L85.2972 30.6583H86.4049L85.6107 28.8192L86.99 27.4817H85.7779L84.733 28.5266L84.942 27.4817ZM88.8918 29.0282C89.3098 28.861 89.5188 28.5893 89.5188 28.234C89.5188 28.0042 89.4143 27.8161 89.2053 27.6489C88.9963 27.4817 88.7246 27.3981 88.3693 27.3981C88.2231 27.3981 88.0768 27.419 87.9305 27.4608C87.7842 27.4817 87.6797 27.5235 87.5752 27.5653C87.4916 27.6071 87.3871 27.6489 87.3244 27.7116C87.2408 27.7743 87.199 27.8161 87.1781 27.8161C87.1572 27.837 87.1363 27.8579 87.1363 27.8579L87.5961 28.4639L87.6588 28.4012C87.7006 28.3594 87.7633 28.3385 87.8678 28.2967C87.9514 28.2549 88.035 28.234 88.1186 28.234C88.3067 28.234 88.3902 28.2967 88.3902 28.4012C88.3902 28.4639 88.3693 28.5057 88.3066 28.5475C88.244 28.5893 88.1604 28.6102 88.0559 28.6102H87.7215L87.5543 29.4044H87.9096C88.1186 29.4044 88.2231 29.4671 88.2231 29.5925C88.2231 29.6761 88.2022 29.7387 88.1395 29.7805C88.0768 29.8432 87.9932 29.8641 87.8678 29.8641C87.7633 29.8641 87.6379 29.8432 87.5334 29.8014C87.4289 29.7596 87.3453 29.7179 87.3035 29.697C87.2617 29.6761 87.2408 29.6552 87.2199 29.6343L86.5303 30.1985L86.5721 30.2612C86.593 30.303 86.6557 30.3448 86.7393 30.3866C86.8228 30.4493 86.9064 30.4911 87.0109 30.5538C87.1154 30.6165 87.2408 30.6583 87.408 30.7001C87.5752 30.7419 87.7633 30.7628 87.9514 30.7628C88.3484 30.7628 88.6828 30.6583 88.9336 30.4493C89.1844 30.2403 89.3098 29.9895 89.3098 29.697C89.3098 29.6134 89.2889 29.5298 89.268 29.4462C89.2471 29.3626 89.2053 29.2999 89.1635 29.2581C89.1217 29.2163 89.0799 29.1745 89.0381 29.1327C88.9963 29.0909 88.9545 29.07 88.9336 29.07C88.9127 29.07 88.8918 29.0282 88.8918 29.0282ZM91.4624 29.279H91.0026L91.3997 28.4848L91.4624 29.279ZM91.525 30.0313L91.5877 30.6374H92.6536L92.1729 27.4608H91.0235L89.1844 30.6374H90.3129L90.6264 30.0313H91.525ZM95.872 28.9446L95.5167 30.6374H96.5407L97.2095 27.4608H96.2482L95.1196 28.5893L94.4718 27.4608H93.594L92.9253 30.6374H93.9493L94.3046 28.9446L94.8688 29.9268L95.872 28.9446ZM98.3589 29.8223L98.4425 29.4253H99.5919L99.7591 28.652H98.6306L98.6933 28.3176H100.198L100.386 27.4817H97.8573L97.1886 30.6583H99.7591L99.9263 29.8223H98.3589ZM103.938 27.4817H102.914L102.684 28.5893H101.723L101.953 27.4817H100.929L100.26 30.6583H101.284L101.535 29.5089H102.496L102.246 30.6583H103.27L103.938 27.4817ZM105.84 29.279H105.38L105.777 28.4848L105.84 29.279ZM105.903 30.0313L105.966 30.6374H107.031L106.551 27.4608H105.401L103.562 30.6374H104.691L105.004 30.0313H105.903ZM110.25 28.9446L109.895 30.6374H110.919L111.587 27.4608H110.626L109.497 28.5893L108.85 27.4608H107.972L107.303 30.6374H108.327L108.682 28.9446L109.247 29.9268L110.25 28.9446Z" fill="#2A2A29"/>
</svg>
