<svg width="13" height="17" viewBox="0 0 13 17" fill="none" xmlns="http://www.w3.org/2000/svg">
<path fill-rule="evenodd" clip-rule="evenodd" d="M6.4773 9.4824C4.7516 9.4824 3.34766 8.17455 3.34766 6.56699C3.34766 4.95946 4.75163 3.65161 6.4773 3.65161C8.20299 3.65161 9.60697 4.95946 9.60697 6.56699C9.60697 8.17455 8.20299 9.4824 6.4773 9.4824ZM6.47831 0.772461C3.04833 0.772461 0.257812 3.3719 0.257812 6.56703C0.257812 10.5323 5.82458 16.3535 6.06159 16.5994C6.28421 16.8303 6.67285 16.83 6.89507 16.5994C7.13208 16.3535 12.6988 10.5323 12.6988 6.56703C12.6988 3.3719 9.9083 0.772461 6.47831 0.772461Z" fill="white"/>
</svg>
