<?xml version="1.0" encoding="UTF-8"?>
<svg width="21px" height="20px" viewBox="0 0 21 20" version="1.1" xmlns="http://www.w3.org/2000/svg" xmlns:xlink="http://www.w3.org/1999/xlink">
    <!-- Generator: sketchtool 49 (51002) - http://www.bohemiancoding.com/sketch -->
    <title>F5C9DB89-77FA-41DA-8DAE-48006AACB651</title>
    <desc>Created with sketchtool.</desc>
    <defs></defs>
    <g id="Page-1" stroke="none" stroke-width="1" fill="none" fill-rule="evenodd">
        <g id="503" transform="translate(-710.000000, -712.000000)" fill="#4A4A4A">
            <g id="Group-3" transform="translate(710.000000, 712.000000)">
                <path d="M10.6669278,0 C7.95109443,0 7.6102611,0.011875 6.54359443,0.0604166667 C5.4790111,0.109166667 4.75234443,0.277708333 4.1165111,0.525 C3.45880277,0.780416667 2.9008861,1.12208333 2.34505277,1.678125 C1.78880277,2.23395833 1.4471361,2.791875 1.1908861,3.449375 C0.942969433,4.08541667 0.774219433,4.81229167 0.726302766,5.87645833 C0.678594433,6.943125 0.666094433,7.28416667 0.666094433,10 C0.666094433,12.7158333 0.678177766,13.055625 0.726511099,14.1222917 C0.775469433,15.186875 0.944011099,15.9135417 1.19109443,16.549375 C1.44671943,17.2070833 1.7883861,17.765 2.34442777,18.3208333 C2.90005277,18.8770833 3.45796943,19.2195833 4.1152611,19.475 C4.7515111,19.7222917 5.4783861,19.8908333 6.5427611,19.9395833 C7.60942777,19.988125 7.95005277,20 10.6656778,20 C13.3817194,20 13.7215111,19.988125 14.7881778,19.9395833 C15.8527611,19.8908333 16.5802611,19.7222917 17.2165111,19.475 C17.8740111,19.2195833 18.4310944,18.8770833 18.9867194,18.3208333 C19.5429694,17.765 19.8846361,17.2070833 20.1408861,16.5495833 C20.3867194,15.9135417 20.5554694,15.1866667 20.6054694,14.1225 C20.6533861,13.0558333 20.6658861,12.7158333 20.6658861,10 C20.6658861,7.28416667 20.6533861,6.94333333 20.6054694,5.87666667 C20.5554694,4.81208333 20.3867194,4.08541667 20.1408861,3.44958333 C19.8846361,2.791875 19.5429694,2.23395833 18.9867194,1.678125 C18.4304694,1.121875 17.8742194,0.780208333 17.2158861,0.525 C16.5783861,0.277708333 15.8513028,0.109166667 14.7867194,0.0604166667 C13.7200528,0.011875 13.3804694,2.96059473e-15 10.6638028,2.96059473e-15 L10.6669278,0 Z M16.0048444,3.4625 C15.3423444,3.4625 14.8048444,3.999375 14.8048444,4.66208333 C14.8048444,5.32458333 15.3423444,5.86208333 16.0048444,5.86208333 C16.6673444,5.86208333 17.2048444,5.32458333 17.2048444,4.66208333 C17.2048444,3.99958333 16.6673444,3.46208333 16.0048444,3.46208333 L16.0048444,3.4625 Z M10.6669278,4.86458333 C7.8308861,4.86458333 5.5315111,7.16395833 5.5315111,10 C5.5315111,12.8360417 7.8308861,15.134375 10.6669278,15.134375 C13.5029694,15.134375 15.8015111,12.8360417 15.8015111,10 C15.8015111,7.16395833 13.5027611,4.86458333 10.6667194,4.86458333 L10.6669278,4.86458333 Z M10.6669278,6.66666667 C12.5077611,6.66666667 14.0002611,8.15895833 14.0002611,10 C14.0002611,11.8408333 12.5077611,13.3333333 10.6669278,13.3333333 C8.8258861,13.3333333 7.33359443,11.8408333 7.33359443,10 C7.33359443,8.15895833 8.8258861,6.66666667 10.6669278,6.66666667 L10.6669278,6.66666667 Z" id="Shape"></path>
            </g>
        </g>
    </g>
</svg>