<svg width="26" height="38" viewBox="0 0 26 38" fill="none" xmlns="http://www.w3.org/2000/svg">
<rect width="26" height="38" fill="black" fill-opacity="0"/>
<rect width="26" height="38" fill="black" fill-opacity="0"/>
<path d="M12.6587 9.30185C14.9526 9.30185 16.8122 7.44 16.8122 5.14329C16.8122 2.84659 14.9526 0.984741 12.6587 0.984741C10.3648 0.984741 8.50525 2.84659 8.50525 5.14329C8.50525 7.44 10.3648 9.30185 12.6587 9.30185Z" fill="#424243"/>
<path d="M15.7637 12.7605L25.3207 6.62557C26.0062 6.17266 26.2078 5.22566 25.7643 4.52571C25.3207 3.82575 24.3932 3.61988 23.7077 4.07279L14.312 10.1253C14.2313 10.0842 14.1104 10.043 14.0297 10.043C12.578 9.75478 11.1263 9.42539 9.71496 9.13717C9.43269 9.096 9.19074 9.096 8.90846 9.13717L2.8194 0.655371C2.29518 -0.0445836 1.32738 -0.209279 0.641859 0.284807C-0.0436644 0.778892 -0.204964 1.76706 0.278935 2.46702L7.01319 11.8546C6.44864 16.0955 6.44864 20.3364 7.09384 24.5773C7.13417 24.9067 7.25514 25.2361 7.37612 25.5243V36.2295C7.37612 37.2177 8.18261 38 9.15041 38C10.1182 38 10.9247 37.2177 10.9247 36.2295V26.5949C11.7715 26.4302 12.578 26.2655 13.4248 26.0596L16.4492 31.0005L16.4895 30.9593V31.0005L24.3126 28.53C25.24 28.283 25.8046 27.2948 25.5223 26.3478C25.2804 25.4008 24.2722 24.8656 23.3448 25.1126L17.8606 26.8419L16.046 23.5892C15.9653 23.4656 15.8847 23.3421 15.7637 23.2186C15.2798 19.8012 15.2798 16.2602 15.7637 12.7605Z" fill="#424243"/>
</svg>
