<svg width="40" height="41" viewBox="0 0 40 41" fill="none" xmlns="http://www.w3.org/2000/svg">
<rect width="40.0001" height="40.3" fill="black" fill-opacity="0" transform="translate(0 0.699951)"/>
<rect width="40.0001" height="40" fill="black" fill-opacity="0" transform="translate(0 1)"/>
<rect width="38.6667" height="38.6667" fill="black" fill-opacity="0" transform="translate(0.666016 1.66663)"/>
<path d="M14.6663 29.6666H13.333L14.6663 30.7333V29.6666Z" fill="#78B9EB"/>
<path d="M26.6663 29.6666H25.333V30.7333L26.6663 29.6666Z" fill="#78B9EB"/>
<path d="M38.2794 34.5333L29.7514 31.7693C29.5481 31.7003 29.3347 31.6656 29.1201 31.6667H29L27.2 29.2667C27.0918 29.1223 26.9297 29.0281 26.7507 29.0053C26.7226 29.0055 26.6945 29.0077 26.6667 29.012V29H26V26.8707C27.681 25.5673 28.6653 23.5603 28.6667 21.4333V15.952C28.7816 15.9526 28.8947 15.9232 28.9947 15.8666C29.2039 15.7485 29.3332 15.5269 29.3334 15.2866V10.0086L32.6667 8.65663V9.66663C31.9303 9.66663 31.3334 10.2636 31.3334 11V15C31.3334 15.7364 31.9303 16.3333 32.6667 16.3333H34.0001C34.7365 16.3333 35.3334 15.7364 35.3334 15V11C35.3334 10.2636 34.7365 9.66663 34.0001 9.66663V7.66663C34.0003 7.40455 33.8469 7.16663 33.6081 7.05863L20.2747 1.05863C20.1009 0.980458 19.9019 0.980458 19.728 1.05863L6.39469 7.05863C6.05878 7.20946 5.90878 7.60405 6.05961 7.93988C6.12994 8.09663 6.25811 8.22005 6.41736 8.28463L10.6667 10.0086V15.2866C10.6667 15.6548 10.9652 15.9533 11.3334 15.9533V21.4333C11.3348 23.5603 12.3191 25.5673 14 26.8707V29H13.3334V29.012C13.3055 29.0077 13.2775 29.0055 13.2494 29.0053C13.0704 29.0281 12.9083 29.1223 12.8 29.2667L11 31.6667H10.88C10.6698 31.6652 10.4608 31.6986 10.2614 31.7653L1.68136 34.5467C0.663854 34.9447 -0.00422985 35.9274 2.01593e-05 37.02V40.3333C2.01593e-05 40.7015 0.29852 41 0.666688 41H39.3334C39.7016 41 40.0001 40.7015 40.0001 40.3333V37.02C40.0004 35.9136 39.3149 34.9229 38.2794 34.5333ZM34.0001 15H32.6667V11H34.0001V15ZM27.7647 32.2427L22.6934 36.7507L21 35.0553L26.548 30.6167L27.7647 32.2427ZM12 14.22V9.66663H11.9867C11.9941 9.63155 11.9986 9.5958 12 9.55997V8.23863L20 7.00796L28 8.23863V9.55997C28.0015 9.5958 28.006 9.63155 28.0134 9.66663H28V14.22C27.0431 13.8506 26.0257 13.663 25 13.6666C23.3363 13.6375 21.709 14.1558 20.3687 15.142C20.2354 15.2446 20.1147 15.3493 20 15.458C19.8854 15.35 19.764 15.2453 19.6327 15.1433C18.2923 14.1563 16.6645 13.6374 15 13.6666C13.9744 13.663 12.957 13.8506 12 14.22ZM20 2.39996L31.6381 7.63663L29.3334 8.56997V7.66663C29.3333 7.33763 29.0932 7.05796 28.768 7.00796L20.1014 5.67463C20.0351 5.66421 19.9676 5.66421 19.9014 5.67463L11.2347 7.00796C10.9085 7.0568 10.667 7.3368 10.6667 7.66663V8.56997L8.36203 7.63663L20 2.39996ZM12.6667 21.4333V15.406C13.4154 15.1376 14.2047 15.0003 15 15C16.3658 14.9691 17.704 15.3876 18.8087 16.1913C19.0561 16.381 19.277 16.603 19.4654 16.8513C19.6863 17.1459 20.1041 17.2056 20.3987 16.9846C20.4492 16.9467 20.4941 16.9018 20.532 16.8513C20.7209 16.6025 20.9422 16.3801 21.19 16.19C22.2954 15.3866 23.634 14.9685 25 15C25.7954 15.0003 26.5847 15.1376 27.3334 15.406V21.4333C27.3297 24.5061 24.8395 26.9963 21.7667 27H18.2334C15.1605 26.9963 12.6704 24.5061 12.6667 21.4333ZM18.2334 28.3333H21.7667C22.7691 28.3325 23.7591 28.1115 24.6667 27.686V30.4127L20 34.146L15.3334 30.4127V27.686C16.241 28.1115 17.231 28.3325 18.2334 28.3333ZM13.454 30.6167L19 35.0553L17.3067 36.7507L12.2354 32.2427L13.454 30.6167ZM38.6667 39.6667H1.33335V37.02C1.3276 36.4887 1.64369 36.0065 2.13336 35.8L10.686 33.0293C10.7486 33.0088 10.8142 32.9989 10.88 33H11.08L16.8907 38.1647C17.1545 38.399 17.5551 38.3873 17.8047 38.138L20 35.9427L22.1954 38.138C22.445 38.3873 22.8456 38.399 23.1094 38.1647L28.92 33H29.1201C29.1906 32.9993 29.2607 33.0108 29.3274 33.034L37.8287 35.7867C38.3361 35.9851 38.6691 36.4752 38.6667 37.02V39.6667Z" fill="#9B9B9B"/>
</svg>
